<?xml version="1.0" standalone="no"?>
<!DOCTYPE svg PUBLIC "-//W3C//DTD SVG 20010904//EN"
 "http://www.w3.org/TR/2001/REC-SVG-20010904/DTD/svg10.dtd">
<svg version="1.0" xmlns="http://www.w3.org/2000/svg"
 width="498.000000pt" height="78.000000pt" viewBox="0 0 498.000000 78.000000"
 preserveAspectRatio="xMidYMid meet">

<g transform="translate(0.000000,78.000000) scale(0.100000,-0.100000)"
fill="#000000" stroke="none">
<path d="M1260 475 l0 -245 45 0 45 0 0 65 c0 36 3 65 8 64 4 0 27 -28 52 -62
l45 -62 58 -3 c38 -2 57 1 57 8 0 7 -26 39 -57 72 -32 32 -59 63 -61 67 -1 4
25 36 59 72 l61 64 -59 3 c-63 3 -60 5 -123 -76 -14 -17 -28 -32 -32 -32 -5 0
-8 49 -8 109 0 119 -7 148 -41 180 -48 44 -49 39 -49 -224z"/>
<path d="M142 638 l3 -43 88 -3 87 -3 -24 -26 c-29 -31 -39 -100 -34 -238 l3
-90 43 -3 42 -3 0 180 0 180 63 3 62 3 0 40 0 40 -168 3 -168 2 3 -42z"/>
<path d="M590 519 c-60 -24 -98 -111 -79 -183 14 -52 63 -104 107 -112 42 -8
103 9 127 36 18 20 18 20 43 -5 52 -52 60 -27 54 173 l-3 102 -30 -17 c-16
-10 -29 -21 -29 -25 0 -14 -18 -9 -56 17 -39 26 -89 32 -134 14z m143 -91 c24
-28 22 -77 -5 -105 -37 -40 -96 -27 -117 26 -22 52 26 117 79 106 14 -3 33
-15 43 -27z"/>
<path d="M980 522 c-54 -25 -76 -61 -65 -104 8 -32 48 -54 110 -63 59 -9 85
-21 85 -39 0 -35 -81 -35 -108 -1 -15 18 -29 25 -55 25 -20 0 -39 -4 -42 -10
-9 -14 22 -67 49 -85 33 -22 113 -29 163 -16 75 20 108 100 63 149 -19 20 -77
42 -113 42 -45 0 -76 41 -42 54 19 7 65 -10 65 -24 0 -5 22 -10 50 -10 47 0
49 1 41 22 -15 40 -56 62 -124 65 -34 1 -69 -1 -77 -5z"/>
<path d="M1680 519 c-33 -13 -60 -48 -60 -80 0 -40 40 -69 116 -85 38 -8 71
-20 75 -26 11 -18 -1 -38 -25 -39 -38 -2 -51 2 -77 27 -25 24 -82 33 -93 15
-11 -18 14 -61 46 -81 103 -63 248 -19 248 74 0 53 -59 96 -133 96 -26 0 -57
19 -57 34 0 29 46 29 80 0 16 -14 85 -22 95 -12 11 11 -15 48 -48 68 -35 22
-123 26 -167 9z"/>
<path d="M2142 383 l3 -148 43 -3 42 -3 0 80 c0 133 37 186 90 129 17 -19 20
-35 20 -115 l0 -94 43 3 42 3 5 97 c4 75 9 101 23 115 16 16 20 16 45 3 26
-15 27 -20 32 -115 l5 -100 43 -3 44 -3 -4 126 c-3 125 -3 127 -31 151 -19 16
-40 24 -67 24 -41 0 -90 -17 -90 -32 0 -14 -21 -9 -47 12 -40 31 -108 24 -147
-15 -15 -15 -19 -16 -34 -2 -9 8 -27 20 -40 26 l-23 12 3 -148z"/>
<path d="M2749 507 c-66 -44 -87 -132 -49 -207 23 -45 51 -67 97 -76 44 -8 75
1 113 32 l31 26 24 -26 c13 -14 31 -26 40 -26 13 0 15 21 15 149 0 143 -1 149
-19 144 -11 -3 -27 -14 -37 -24 -18 -20 -44 -26 -44 -9 0 16 -57 40 -98 40
-24 0 -52 -9 -73 -23z m152 -76 c35 -36 37 -69 4 -105 -30 -32 -70 -34 -102
-4 -31 29 -30 77 2 112 31 34 60 33 96 -3z"/>
<path d="M3092 383 l3 -148 42 -3 41 -3 4 94 c3 100 19 137 58 137 38 0 50
-32 50 -134 l0 -97 43 3 42 3 3 90 c4 113 -3 151 -33 181 -41 41 -119 28 -163
-26 -11 -13 -13 -13 -23 3 -5 9 -23 24 -40 32 l-30 16 3 -148z"/>
<path d="M3511 512 c-48 -24 -69 -65 -70 -134 -1 -69 20 -109 72 -139 49 -27
104 -22 151 15 l33 25 22 -25 c11 -13 29 -24 38 -24 16 0 18 13 17 143 0 78
-1 145 -2 150 -3 10 -62 -21 -62 -33 0 -16 -17 -12 -56 15 -44 30 -94 32 -143
7z m143 -78 c52 -53 22 -134 -50 -134 -28 0 -38 6 -54 33 -25 39 -19 73 16
105 33 29 55 28 88 -4z"/>
<path d="M3902 510 c-36 -22 -71 -87 -72 -131 0 -36 28 -100 54 -122 47 -42
103 -48 154 -17 18 11 35 20 37 20 3 0 5 -20 5 -43 0 -55 -24 -79 -77 -79 -28
0 -43 7 -60 26 -17 20 -31 26 -64 26 -40 0 -41 -1 -34 -28 15 -59 71 -92 160
-92 72 0 119 20 145 62 18 30 20 50 20 216 0 100 -2 182 -5 182 -14 0 -64 -31
-67 -41 -2 -7 -18 -1 -42 15 -48 32 -107 34 -154 6z m147 -76 c57 -48 28 -134
-45 -134 -35 0 -74 37 -74 71 0 43 37 86 77 88 6 1 25 -11 42 -25z"/>
<path d="M4320 514 c-68 -29 -99 -93 -85 -174 19 -110 181 -157 270 -78 48 42
47 68 -3 68 -26 0 -45 -7 -57 -20 -25 -28 -79 -27 -99 2 -31 44 -24 48 95 48
l112 0 -5 44 c-3 24 -14 55 -24 69 -40 54 -132 72 -204 41z m112 -61 c34 -31
23 -43 -42 -43 -64 0 -72 8 -40 40 24 24 57 26 82 3z"/>
<path d="M4612 383 l3 -148 45 0 45 0 3 85 c3 97 16 120 69 120 32 0 33 1 33
40 0 28 -5 43 -16 47 -20 7 -64 -13 -82 -38 -14 -20 -14 -20 -36 -1 -11 11
-31 25 -44 31 l-23 12 3 -148z"/>
</g>
</svg>
